module gitlab.com/jhes/ditenun-go

require (
	github.com/denisenkom/go-mssqldb v0.0.0-20190412130859-3b1d194e553a // indirect
	github.com/erikstmartin/go-testdb v0.0.0-20160219214506-8d10e4a1bae5 // indirect
	github.com/go-sql-driver/mysql v1.4.1 // indirect
	github.com/gofrs/uuid v3.2.0+incompatible // indirect
	github.com/jinzhu/gorm v1.9.2
	github.com/jinzhu/inflection v0.0.0-20180308033659-04140366298a // indirect
	github.com/jinzhu/now v1.0.0 // indirect
	github.com/joho/godotenv v1.3.0
	github.com/labstack/echo/v4 v4.0.0
	github.com/labstack/gommon v0.2.8
	github.com/lib/pq v1.0.0 // indirect
	github.com/mattn/go-sqlite3 v1.10.0 // indirect
	github.com/pkg/errors v0.8.1
)
